('c:\\users\\monika\\anaconda3\\lib\\site-packages\\morfeusz2-1.9.16-py3.7-win-amd64.egg',
 None,
 {'*.cp37-win_amd64.pyd', '*.pyc', 'EGG-INFO', '*.py', '*.pyd', '*.pyw'},
 'DATA',
 [('morfeusz2.dll',
   'c:\\users\\monika\\anaconda3\\lib\\site-packages\\morfeusz2-1.9.16-py3.7-win-amd64.egg\\morfeusz2.dll',
   'DATA')])
